module github.com/livebud/bud/example/hn

go 1.17

require (
	github.com/livebud/bud v0.0.0
	github.com/matthewmueller/hackernews v0.3.0
)

require (
	github.com/ajg/form v1.5.2-0.20200323032839-9aeb3cf462e1 // indirect
	github.com/armon/go-radix v1.0.0 // indirect
	github.com/cespare/xxhash v1.1.0 // indirect
	github.com/evanw/esbuild v0.14.11 // indirect
	github.com/fatih/structtag v1.2.0 // indirect
	github.com/fsnotify/fsnotify v1.5.1 // indirect
	github.com/gedex/inflector v0.0.0-20170307190818-16278e9db813 // indirect
	github.com/matthewmueller/gotext v0.0.0-20210424201144-265ed61725ac // indirect
	github.com/matthewmueller/text v0.0.0-20210424201111-ec1e4af8dfe8 // indirect
	github.com/monochromegane/go-gitignore v0.0.0-20200626010858-205db1a8cc00 // indirect
	github.com/otiai10/copy v1.7.0 // indirect
	github.com/stretchr/testify v1.7.0 // indirect
	github.com/timewasted/go-accept-headers v0.0.0-20130320203746-c78f304b1b09 // indirect
	go.kuoruan.net/v8go-polyfills v0.5.0 // indirect
	golang.org/x/mod v0.6.0-dev.0.20220106191415-9b9b3d81d5e3 // indirect
	golang.org/x/net v0.0.0-20220412020605-290c469a71a5 // indirect
	golang.org/x/sync v0.0.0-20210220032951-036812b2e83c // indirect
	golang.org/x/sys v0.0.0-20220412211240-33da011f77ad // indirect
	golang.org/x/tools v0.1.10 // indirect
	golang.org/x/xerrors v0.0.0-20220411194840-2f41105eb62f // indirect
	rogchap.com/v8go v0.7.0 // indirect
)

replace github.com/livebud/bud => ../..
